Project1
…
#grouped by team
df.teams <- comparisons %>%
  group_by(team) %>% select(3:16) %>%
  summarise_each(funs(max = max,mean = mean))

## Adding missing grouping variables: `team`

df.teams %>% pivot_longer(contains("_")) %>% separate(name,into=c("Stat","Type")) %>% pivot_wider(names_from = "Stat",values_from="value")

## # A tibble: 64 x 16
##    team  Type   goals expectedGoals  crosses boxTouches  passes progressivePass…
##    <chr> <chr>  <dbl>         <dbl>    <dbl>      <dbl>   <dbl>            <dbl>
##  1 Arge… max    3.02         3.08    1.24e+0    1.52     3.25             0.96  
##  2 Arge… mean   0.123       -0.103  -7.84e-2   -0.00579  0.31            -0.23  
##  3 Aust… max    4.17         4.51    7.26e+0    3.91     3.13             3.12  
##  4 Aust… mean  -0.114        0.0647  3.20e-1    0.0767   0.390            0.417 
##  5 Belg… max    3.51         3.05    3.15e+0    2.55     2.03             1.59  
##  6 Belg… mean   0.285        0.139  -4.76e-4    0.0205   0.0195          -0.0781
##  7 Braz… max    2.33         5.02    4.15e+0    5.82     2.12             1.94  
##  8 Braz… mean   0.228        0.525   2.32e-1    0.741    0.459            0.0324
##  9 Colo… max    4.34         1.68    2.18e+0    1.85     1.06             1.64  
## 10 Colo… mean   0.109       -0.209  -1.21e-1   -0.322   -0.113           -0.0628
## # … with 54 more rows, and 8 more variables: takeons <dbl>,
## #   progressiveRuns <dbl>, tackles <dbl>, interceptions <dbl>,
## #   clearances <dbl>, blocks <dbl>, aerials <dbl>, nonShotExpectedGoals <dbl>
…
teammean<- teammean %>% pivot_longer(contains("_")) %>% separate(name,into=c("Stat","Type")) %>% pivot_wider(names_from = "Stat",values_from="value") %>% select(-c("Type"))

meanjoinf<-full_join(forecasts,teammean,by="team") %>% drop_na()

In this step, I first quickly created a dataset that would store these team averages for each stat in a dataset called teammean. Next, I joined forecasts and teammean by team with a full join as I wanted to retain all the variables. This resulted in a dataset that contained the teams in each round, their spi, global offense rank, global defense rank, as well as their predicted chances of winning the cup. These teams were also paired with their average stat z scores to show what stats they excelled and did not excell in as a team.Nothing was dropped.

#PLOTS
#correlation heatmap
cormat <-  meanjoinf%>% select_if(is.numeric) %>% cor(use="pair")
tidycor <- cormat %>% as.data.frame() %>% rownames_to_column("var1") %>%
pivot_longer(-1,names_to="var2",values_to="correlation")
tidycor

## # A tibble: 324 x 3
##    var1  var2              correlation
##    <chr> <chr>                   <dbl>
##  1 spi   spi                    1     
##  2 spi   global_o               0.946 
##  3 spi   global_d              -0.911 
##  4 spi   win_league             0.536 
##  5 spi   goals                  0.576 
##  6 spi   expectedGoals          0.499 
##  7 spi   crosses                0.211 
##  8 spi   boxTouches             0.473 
##  9 spi   passes                 0.502 
## 10 spi   progressivePasses      0.0915
## # … with 314 more rows
…
